Third Week: Exploratory Data Analysis
…
## not free for commercial and Governmental use

laliga <- as.tbl(spain) %>% filter(round == "league" & tier == 1)

league_maker <- function(data){
  data %>% group_by(Season, home) %>% summarise(HW = sum(hgoal > vgoal), HL = sum(hgoal<vgoal), HE = sum(hgoal == vgoal), HE0 = sum(hgoal == vgoal & hgoal == 0), HE1 = sum(hgoal == vgoal & hgoal == 1), Hscored = sum(hgoal), Hbeaten = sum(vgoal), HD = sum(hgoal - vgoal)) %>% select(Season, Team = home, HW, HL, HE, HE0, HE1, Hscored, Hbeaten, HD) -> hinfo
  data %>% group_by(Season, visitor) %>% summarise(VW = sum(hgoal < vgoal), VL = sum(hgoal>vgoal), VE = sum(hgoal == vgoal), VE0 = sum(hgoal == vgoal & hgoal ==0), VE1 = sum(hgoal == vgoal & hgoal == 1), Vscored = sum(vgoal), Vbeaten = sum(hgoal), VD = sum(vgoal - hgoal)) %>% select(Season, Team = visitor, VW, VL, VE, VE0, VE1, Vscored, Vbeaten , VD) -> vinfo
  info <- full_join(hinfo, vinfo, c("Season", "Team"))
  info %>% mutate(W = HW + VW, L = HL + VL, E = HE + VE, E0 = HE0 + VE0, E1 = HE1 + VE1, Score = W*3 + E, scored = Hscored + Vscored, beaten = Hbeaten + Vbeaten, Diff = HD + VD) %>% arrange(desc(Season), desc(Score), desc(Diff), desc(scored)) %>% mutate(Rank = row_number()) -> table
  return(table)
}
laliga_table <- league_maker(laliga)
laliga_table

## # A tibble: 1,442 x 28
## # Groups:   Season [85]
##    Season Team     HW    HL    HE   HE0   HE1 Hscored Hbeaten     HD    VW
##     <dbl> <chr> <int> <int> <int> <int> <int>   <dbl>   <dbl>  <dbl> <int>
##  1   2015 FC B    16     2     1     0     0    67.0   14.0   53.0     13
##  2   2015 Real    16     2     1     1     0    70.0   16.0   54.0     12
##  3   2015 Atle    15     1     3     2     1    33.0    7.00  26.0     13
##  4   2015 Vill    12     3     4     2     1    26.0   12.0   14.0      6
##  5   2015 Athl    11     4     4     2     1    35.0   17.0   18.0      7
##  6   2015 Celt     9     4     6     2     3    29.0   25.0    4.00     8
##  7   2015 Sevi    14     4     1     0     1    38.0   21.0   17.0      0
##  8   2015 Mala     8     5     6     2     3    26.0   15.0   11.0      4
##  9   2015 Real     7     7     5     2     3    22.0   20.0    2.00     6
## 10   2015 Real     6     7     6     1     4    17.0   23.0  - 6.00     5
## # ... with 1,432 more rows, and 17 more variables: VL <int>, VE <int>,
## #   VE0 <int>, VE1 <int>, Vscored <dbl>, Vbeaten <dbl>, VD <dbl>, W <int>,
## #   L <int>, E <int>, E0 <int>, E1 <int>, Score <dbl>, scored <dbl>,
## #   beaten <dbl>, Diff <dbl>, Rank <int>
…
                            .                .       Deportivo La Coruna  CA Osasuna  Racing Santander          .

#first we make two way table, means each game is represented as both ways. It is good to have all games of an specific team as home or visitor.
laliga  %>% rename(h = home) %>% rename(home = visitor) %>%  rename(visitor = h) %>% 
  rename(h = hgoal) %>% rename(hgoal = vgoal) %>%  rename(vgoal = h) -> laliga_reversed
rbind(laliga, laliga_reversed) -> twowaylaliga
#then add week to each game so we can analyze vectors then
twowaylaliga %>% group_by(Season, home) %>% arrange(Season, home, Date) %>% mutate(Week = min_rank(Date), equal = hgoal == vgoal, win = hgoal > vgoal, loose = vgoal > hgoal ) -> weekedgames

weekedgames %>% filter(Season >= 2001 & Season <= 2010 & (home == "FC Barcelona" | home == "Real Madrid" | home == "Valencia CF")) %>% group_by(visitor) %>% summarise(Wins = sum(vgoal > hgoal)) %>% arrange(desc(Wins)) %>% select(Team = visitor, Wins) %>% full_join(avrankedtable)

## Joining, by = "Team"

## # A tibble: 34 x 3
##    Team                 Wins avrank
##    <chr>               <int>  <dbl>
##  1 Sevilla FC             19   5.50
##  2 Real Madrid            18   2.10
##  3 Deportivo La Coruna    17   8.10
##  4 FC Barcelona           17   2.10
##  5 Villarreal CF          17   7.10
##  6 CA Osasuna             13  12.7 
##  7 Racing Santander       13  13.2 
##  8 Athletic Bilbao        12   9.70
##  9 Atletico Madrid        12   7.67
## 10 RCD Mallorca           12  11.5 
## # ... with 24 more rows
…
