second week: Introduction to R and Rstudio
…
.                       .         .

md %>% mutate(density = 1000*weight/(dim_length*dim_breadth*dim_thickness)) %>% select(device, density) %>% filter(!is.na(density) & density<3) -> mdensity 
mdensity %>% filter(density<1)

## # A tibble: 1,014 x 2
##    device   density
##    <fctr>     <dbl>
##  1   2040 0.9885380
##  2 OT-308 0.9829620
##  3 OT-292 0.8799580
##  4 OT-228 0.8972518
##  5 OT-665 0.9946470
##  6 OT-361 0.9356439
##  7 OT-223 0.9150865
##  8 OT-217 0.8830098
##  9 OT-213 0.8683022
## 10 OT-209 0.8946144
## # ... with 1,004 more rows
…
